poster/plots_power/scopy_mesure_clock_24Mhz.csv

;Scopy version,f4beeb1
;Exported on,Sunday December 22/12/2024
;Device,M2K
;Nr of samples,65536
;Sample rate,10000
;Tool,Oscilloscope
;Additional Information,
Sample,Time(S),CH1(V)
0,-0.8192,0.113814
1,-0.8191,0.113814
2,-0.819,0.113814
3,-0.8189,0.113814
4,-0.8188,0.113814
5,-0.8187,0.113814
6,-0.8186,0.113814
7,-0.8185,0.113814
8,-0.8184,0.113814
9,-0.8183,0.113814
10,-0.8182,0.113814
11,-0.8181,0.113814
12,-0.818,0.113814
13,-0.8179,0.113814
14,-0.8178,0.113814
15,-0.8177,0.113814
16,-0.8176,0.113814
17,-0.8175,0.113814
18,-0.8174,0.113814
19,-0.8173,0.113814
20,-0.8172,0.113814
21,-0.8171,0.113814
22,-0.817,0.113814
23,-0.8169,0.113814
24,-0.8168,0.113814
25,-0.8167,0.113814
26,-0.8166,0.113814
27,-0.8165,0.113814
28,-0.8164,0.113814
29,-0.8163,0.113814
30,-0.8162,0.113814
31,-0.8161,0.113814
32,-0.816,0.113814
33,-0.8159,0.113814
34,-0.8158,0.113814
35,-0.8157,0.113814
36,-0.8156,0.112158
37,-0.8155,0.112158
38,-0.8154,0.112158
39,-0.8153,0.112158
40,-0.8152,0.112158
41,-0.8151,0.112158
42,-0.815,0.112158
43,-0.8149,0.112158
44,-0.8148,0.112158
45,-0.8147,0.112158
46,-0.8146,0.112158
47,-0.8145,0.112158
48,-0.8144,0.112158
49,-0.8143,0.112158
50,-0.8142,0.112158
51,-0.8141,0.112158
52,-0.814,0.112158
53,-0.8139,0.112158
54,-0.8138,0.112158
55,-0.8137,0.113814
56,-0.8136,0.112158
57,-0.8135,0.112158
58,-0.8134,0.112158
59,-0.8133,0.112158
60,-0.8132,0.112158
61,-0.8131,0.112158
62,-0.813,0.112158
63,-0.8129,0.112158
64,-0.8128,0.112158
65,-0.8127,0.112158
66,-0.8126,0.112158
67,-0.8125,0.112158
68,-0.8124,0.113814
69,-0.8123,0.113814
70,-0.8122,0.113814
71,-0.8121,0.113814
72,-0.812,0.113814
73,-0.8119,0.112158
74,-0.8118,0.112158
75,-0.8117,0.112158
76,-0.8116,0.112158
77,-0.8115,0.112158
78,-0.8114,0.112158
79,-0.8113,0.112158
80,-0.8112,0.112158
81,-0.8111,0.112158
82,-0.811,0.112158
83,-0.8109,0.112158
84,-0.8108,0.11547
85,-0.8107,0.118782
86,-0.8106,0.120438
87,-0.8105,0.12375
88,-0.8104,0.125406
89,-0.8103,0.125406
90,-0.8102,0.12375
91,-0.8101,0.128718
92,-0.81,0.128718
93,-0.8099,0.128718
94,-0.8098,0.128718
95,-0.8097,0.128718
96,-0.8096,0.128718
97,-0.8095,0.128718
98,-0.8094,0.128718
99,-0.8093,0.128718
100,-0.8092,0.128718
101,-0.8091,0.128718
102,-0.809,0.128718
103,-0.8089,0.128718
104,-0.8088,0.128718
105,-0.8087,0.128718
106,-0.8086,0.128718
107,-0.8085,0.128718
108,-0.8084,0.128718
109,-0.8083,0.128718
110,-0.8082,0.128718
111,-0.8081,0.128718
112,-0.808,0.128718
113,-0.8079,0.128718
114,-0.8078,0.128718
115,-0.8077,0.128718
116,-0.8076,0.128718
117,-0.8075,0.128718
118,-0.8074,0.128718
119,-0.8073,0.128718
120,-0.8072,0.128718
121,-0.8071,0.128718
122,-0.807,0.128718
123,-0.8069,0.128718
124,-0.8068,0.128718
125,-0.8067,0.128718
126,-0.8066,0.128718
127,-0.8065,0.128718
128,-0.8064,0.128718
129,-0.8063,0.128718
130,-0.8062,0.128718
131,-0.8061,0.128718
132,-0.806,0.128718
133,-0.8059,0.128718
134,-0.8058,0.128718
135,-0.8057,0.128718
136,-0.8056,0.128718
137,-0.8055,0.128718
138,-0.8054,0.128718
139,-0.8053,0.128718
140,-0.8052,0.128718
141,-0.8051,0.128718
142,-0.805,0.128718
143,-0.8049,0.128718
144,-0.8048,0.128718
145,-0.8047,0.128718
146,-0.8046,0.128718
147,-0.8045,0.128718
148,-0.8044,0.128718
149,-0.8043,0.128718
150,-0.8042,0.128718
151,-0.8041,0.128718
152,-0.804,0.128718
153,-0.8039,0.128718
154,-0.8038,0.128718
155,-0.8037,0.128718
156,-0.8036,0.128718
157,-0.8035,0.128718
158,-0.8034,0.128718
159,-0.8033,0.128718
160,-0.8032,0.128718
161,-0.8031,0.128718
162,-0.803,0.128718
163,-0.8029,0.128718
164,-0.8028,0.128718
165,-0.8027,0.128718
166,-0.8026,0.128718
167,-0.8025,0.128718
168,-0.8024,0.128718
169,-0.8023,0.128718
170,-0.8022,0.128718
171,-0.8021,0.128718
172,-0.802,0.128718
173,-0.8019,0.128718
174,-0.8018,0.128718
175,-0.8017,0.128718
176,-0.8016,0.128718
177,-0.8015,0.128718
178,-0.8014,0.128718
179,-0.8013,0.128718
180,-0.8012,0.128718
181,-0.8011,0.128718
182,-0.801,0.125406
183,-0.8009,0.130374
184,-0.8008,0.130374
185,-0.8007,0.130374
186,-0.8006,0.130374
187,-0.8005,0.130374
188,-0.8004,0.130374
189,-0.8003,0.130374
190,-0.8002,0.130374
191,-0.8001,0.130374
192,-0.8,0.130374
193,-0.7999,0.130374
194,-0.7998,0.130374
195,-0.7997,0.128718
196,-0.7996,0.130374
197,-0.7995,0.130374
198,-0.7994,0.130374
199,-0.7993,0.128718
200,-0.7992,0.128718
201,-0.7991,0.128718
202,-0.799,0.128718
203,-0.7989,0.128718
204,-0.7988,0.128718
205,-0.7987,0.128718
206,-0.7986,0.128718
207,-0.7985,0.125406
208,-0.7984,0.130374
209,-0.7983,0.125406
210,-0.7982,0.130374
211,-0.7981,0.130374
212,-0.798,0.128718
213,-0.7979,0.130374
214,-0.7978,0.130374
215,-0.7977,0.130374
216,-0.7976,0.130374
217,-0.7975,0.125406
218,-0.7974,0.128718
219,-0.7973,0.130374
220,-0.7972,0.130374
221,-0.7971,0.130374
222,-0.797,0.130374
223,-0.7969,0.130374
224,-0.7968,0.130374
225,-0.7967,0.130374
226,-0.7966,0.130374
227,-0.7965,0.130374
228,-0.7964,0.130374
229,-0.7963,0.130374
230,-0.7962,0.130374
231,-0.7961,0.130374
232,-0.796,0.130374
233,-0.7959,0.128718
234,-0.7958,0.128718
235,-0.7957,0.128718
236,-0.7956,0.128718
237,-0.7955,0.128718
238,-0.7954,0.128718
239,-0.7953,0.128718
240,-0.7952,0.128718
241,-0.7951,0.128718
242,-0.795,0.128718
243,-0.7949,0.128718
244,-0.7948,0.128718
245,-0.7947,0.128718
246,-0.7946,0.128718
247,-0.7945,0.128718
248,-0.7944,0.128718
249,-0.7943,0.128718
250,-0.7942,0.128718
251,-0.7941,0.128718
252,-0.794,0.128718
253,-0.7939,0.128718
254,-0.7938,0.128718
255,-0.7937,0.128718
256,-0.7936,0.128718
257,-0.7935,0.128718
258,-0.7934,0.128718
259,-0.7933,0.128718
260,-0.7932,0.128718
261,-0.7931,0.128718
262,-0.793,0.128718
263,-0.7929,0.128718
264,-0.7928,0.128718
265,-0.7927,0.128718
266,-0.7926,0.128718
267,-0.7925,0.128718
268,-0.7924,0.128718
269,-0.7923,0.128718
270,-0.7922,0.128718
271,-0.7921,0.128718
272,-0.792,0.128718
273,-0.7919,0.125406
274,-0.7918,0.128718
275,-0.7917,0.128718
276,-0.7916,0.128718
277,-0.7915,0.128718
278,-0.7914,0.128718
279,-0.7913,0.128718
280,-0.7912,0.128718
281,-0.7911,0.128718
282,-0.791,0.128718
283,-0.7909,0.128718
284,-0.7908,0.128718
285,-0.7907,0.128718
286,-0.7906,0.128718
287,-0.7905,0.128718
288,-0.7904,0.128718
289,-0.7903,0.128718
290,-0.7902,0.128718
291,-0.7901,0.128718
292,-0.79,0.128718
293,-0.7899,0.128718
294,-0.7898,0.128718
295,-0.7897,0.128718
296,-0.7896,0.128718
297,-0.7895,0.128718
298,-0.7894,0.128718
299,-0.7893,0.128718
300,-0.7892,0.128718
301,-0.7891,0.128718
302,-0.789,0.128718
303,-0.7889,0.128718
304,-0.7888,0.128718
305,-0.7887,0.128718
306,-0.7886,0.128718
307,-0.7885,0.128718
308,-0.7884,0.128718
309,-0.7883,0.128718
310,-0.7882,0.128718
311,-0.7881,0.128718
312,-0.788,0.128718
313,-0.7879,0.128718
314,-0.7878,0.128718
315,-0.7877,0.128718
316,-0.7876,0.128718
317,-0.7875,0.128718
318,-0.7874,0.128718
319,-0.7873,0.128718
320,-0.7872,0.128718
321,-0.7871,0.128718
322,-0.787,0.128718
323,-0.7869,0.128718
324,-0.7868,0.128718
325,-0.7867,0.128718
326,-0.7866,0.128718
327,-0.7865,0.128718
328,-0.7864,0.128718
329,-0.7863,0.128718
330,-0.7862,0.128718
331,-0.7861,0.128718
332,-0.786,0.128718
333,-0.7859,0.128718
334,-0.7858,0.128718
335,-0.7857,0.128718
336,-0.7856,0.128718
337,-0.7855,0.128718
338,-0.7854,0.128718
339,-0.7853,0.128718
340,-0.7852,0.128718
341,-0.7851,0.128718
342,-0.785,0.128718
343,-0.7849,0.128718
344,-0.7848,0.128718
345,-0.7847,0.128718
346,-0.7846,0.128718
347,-0.7845,0.128718
348,-0.7844,0.128718
349,-0.7843,0.128718
350,-0.7842,0.128718
351,-0.7841,0.128718
352,-0.784,0.128718
353,-0.7839,0.128718
354,-0.7838,0.128718
355,-0.7837,0.128718
356,-0.7836,0.128718
357,-0.7835,0.128718
358,-0.7834,0.128718
359,-0.7833,0.128718
360,-0.7832,0.128718
361,-0.7831,0.128718
362,-0.783,0.128718
363,-0.7829,0.128718
364,-0.7828,0.128718
365,-0.7827,0.128718
366,-0.7826,0.128718
367,-0.7825,0.128718
368,-0.7824,0.128718
369,-0.7823,0.128718
370,-0.7822,0.128718
371,-0.7821,0.128718
372,-0.782,0.128718
373,-0.7819,0.128718
374,-0.7818,0.128718
375,-0.7817,0.128718
376,-0.7816,0.128718
377,-0.7815,0.130374
378,-0.7814,0.128718
379,-0.7813,0.130374
380,-0.7812,0.130374
381,-0.7811,0.130374
382,-0.781,0.130374
383,-0.7809,0.130374
384,-0.7808,0.130374
385,-0.7807,0.130374
386,-0.7806,0.130374
387,-0.7805,0.130374
388,-0.7804,0.130374
389,-0.7803,0.130374
390,-0.7802,0.130374
391,-0.7801,0.130374
392,-0.78,0.130374
393,-0.7799,0.130374
394,-0.7798,0.130374
395,-0.7797,0.130374
396,-0.7796,0.130374
397,-0.7795,0.130374
398,-0.7794,0.130374
399,-0.7793,0.130374
400,-0.7792,0.130374
401,-0.7791,0.130374
402,-0.779,0.130374
403,-0.7789,0.130374
404,-0.7788,0.130374
405,-0.7787,0.130374
406,-0.7786,0.130374
407,-0.7785,0.130374
408,-0.7784,0.130374
409,-0.7783,0.130374
410,-0.7782,0.130374
411,-0.7781,0.130374
412,-0.778,0.130374
413,-0.7779,0.130374
414,-0.7778,0.130374
415,-0.7777,0.130374
416,-0.7776,0.130374
417,-0.7775,0.130374
418,-0.7774,0.130374
419,-0.7773,0.130374
420,-0.7772,0.130374
421,-0.7771,0.130374
422,-0.777,0.130374
423,-0.7769,0.130374
424,-0.7768,0.130374
425,-0.7767,0.130374
426,-0.7766,0.130374
427,-0.7765,0.130374
428,-0.7764,0.130374
429,-0.7763,0.130374
430,-0.7762,0.130374
431,-0.7761,0.130374
432,-0.776,0.130374
433,-0.7759,0.130374
434,-0.7758,0.128718
435,-0.7757,0.128718
436,-0.7756,0.128718
437,-0.7755,0.128718
438,-0.7754,0.128718
439,-0.7753,0.128718
440,-0.7752,0.128718
441,-0.7751,0.128718
442,-0.775,0.128718
443,-0.7749,0.128718
444,-0.7748,0.128718
445,-0.7747,0.128718
446,-0.7746,0.128718
447,-0.7745,0.128718
448,-0.7744,0.128718
449,-0.7743,0.128718
450,-0.7742,0.128718
451,-0.7741,0.128718
452,-0.774,0.128718
453,-0.7739,0.128718
454,-0.7738,0.128718
455,-0.7737,0.128718
456,-0.7736,0.128718
457,-0.7735,0.128718
458,-0.7734,0.128718
459,-0.7733,0.128718
460,-0.7732,0.128718
461,-0.7731,0.128718
462,-0.773,0.128718
463,-0.7729,0.128718
464,-0.7728,0.128718
465,-0.7727,0.128718
466,-0.7726,0.128718
467,-0.7725,0.128718
468,-0.7724,0.128718
469,-0.7723,0.128718
470,-0.7722,0.128718
471,-0.7721,0.128718
472,-0.772,0.128718
473,-0.7719,0.128718
474,-0.7718,0.128718
475,-0.7717,0.128718
476,-0.7716,0.128718
477,-0.7715,0.128718
478,-0.7714,0.128718
479,-0.7713,0.128718
480,-0.7712,0.128718
481,-0.7711,0.128718
482,-0.771,0.128718
483,-0.7709,0.128718
484,-0.7708,0.128718
485,-0.7707,0.128718
486,-0.7706,0.128718
487,-0.7705,0.128718
488,-0.7704,0.128718
489,-0.7703,0.128718
490,-0.7702,0.128718
491,-0.7701,0.128718
492,-0.77,0.128718
493,-0.7699,0.128718
494,-0.7698,0.128718
495,-0.7697,0.128718
496,-0.7696,0.128718
497,-0.7695,0.128718
498,-0.7694,0.128718
499,-0.7693,0.128718
500,-0.7692,0.128718
501,-0.7691,0.128718
502,-0.769,0.128718
503,-0.7689,0.128718
504,-0.7688,0.128718
505,-0.7687,0.128718
506,-0.7686,0.128718
507,-0.7685,0.128718
508,-0.7684,0.128718
509,-0.7683,0.128718
510,-0.7682,0.128718
511,-0.7681,0.128718
512,-0.768,0.128718
513,-0.7679,0.128718
514,-0.7678,0.128718
515,-0.7677,0.128718
516,-0.7676,0.128718
517,-0.7675,0.128718
518,-0.7674,0.128718
519,-0.7673,0.128718
520,-0.7672,0.128718
521,-0.7671,0.128718
522,-0.767,0.128718
523,-0.7669,0.128718
524,-0.7668,0.128718
525,-0.7667,0.128718
526,-0.7666,0.128718
527,-0.7665,0.128718
528,-0.7664,0.128718
529,-0.7663,0.128718
530,-0.7662,0.128718
531,-0.7661,0.128718
532,-0.766,0.128718
533,-0.7659,0.128718
534,-0.7658,0.128718
535,-0.7657,0.128718
536,-0.7656,0.128718
537,-0.7655,0.128718
538,-0.7654,0.128718
539,-0.7653,0.128718
540,-0.7652,0.128718
541,-0.7651,0.128718
542,-0.765,0.128718
543,-0.7649,0.128718
544,-0.7648,0.128718
545,-0.7647,0.128718
546,-0.7646,0.128718
547,-0.7645,0.128718
548,-0.7644,0.128718
549,-0.7643,0.128718
550,-0.7642,0.128718
551,-0.7641,0.128718
552,-0.764,0.128718
553,-0.7639,0.128718
554,-0.7638,0.128718
555,-0.7637,0.128718
556,-0.7636,0.128718
557,-0.7635,0.128718
558,-0.7634,0.128718
559,-0.7633,0.128718
560,-0.7632,0.128718
561,-0.7631,0.128718
562,-0.763,0.128718
563,-0.7629,0.128718
564,-0.7628,0.130374
565,-0.7627,0.130374
566,-0.7626,0.130374
567,-0.7625,0.130374
568,-0.7624,0.128718
569,-0.7623,0.128718
570,-0.7622,0.128718
571,-0.7621,0.128718
572,-0.762,0.130374
573,-0.7619,0.130374
574,-0.7618,0.130374
575,-0.7617,0.130374
576,-0.7616,0.130374
577,-0.7615,0.130374
578,-0.7614,0.130374
579,-0.7613,0.130374
580,-0.7612,0.130374
581,-0.7611,0.130374
582,-0.761,0.130374
583,-0.7609,0.130374
584,-0.7608,0.130374
585,-0.7607,0.130374
586,-0.7606,0.130374
587,-0.7605,0.130374
588,-0.7604,0.130374
589,-0.7603,0.130374
590,-0.7602,0.130374
591,-0.7601,0.130374
592,-0.76,0.130374
593,-0.7599,0.130374
594,-0.7598,0.130374
595,-0.7597,0.130374
596,-0.7596,0.130374
597,-0.7595,0.130374
598,-0.7594,0.130374
599,-0.7593,0.130374
600,-0.7592,0.130374
601,-0.7591,0.130374
602,-0.759,0.130374
603,-0.7589,0.130374
604,-0.7588,0.130374
605,-0.7587,0.130374
606,-0.7586,0.130374
607,-0.7585,0.130374
608,-0.7584,0.130374
609,-0.7583,0.130374
610,-0.7582,0.130374
611,-0.7581,0.130374
612,-0.758,0.130374
613,-0.7579,0.130374
614,-0.7578,0.130374
615,-0.7577,0.130374
616,-0.7576,0.130374
617,-0.7575,0.130374
618,-0.7574,0.130374
619,-0.7573,0.130374
620,-0.7572,0.130374
621,-0.7571,0.130374
622,-0.757,0.130374
623,-0.7569,0.130374
624,-0.7568,0.130374
625,-0.7567,0.130374
626,-0.7566,0.130374
627,-0.7565,0.130374
628,-0.7564,0.130374
629,-0.7563,0.130374
630,-0.7562,0.130374
631,-0.7561,0.130374
632,-0.756,0.130374
633,-0.7559,0.130374
634,-0.7558,0.130374
635,-0.7557,0.130374
636,-0.7556,0.130374
637,-0.7555,0.130374
638,-0.7554,0.130374
639,-0.7553,0.130374
640,-0.7552,0.130374
641,-0.7551,0.125406
642,-0.755,0.130374
643,-0.7549,0.130374
644,-0.7548,0.130374
645,-0.7547,0.130374
646,-0.7546,0.130374
647,-0.7545,0.130374
648,-0.7544,0.130374
649,-0.7543,0.130374
650,-0.7542,0.130374
651,-0.7541,0.130374
652,-0.754,0.130374
653,-0.7539,0.130374
654,-0.7538,0.130374
655,-0.7537,0.130374
656,-0.7536,0.130374
657,-0.7535,0.130374
658,-0.7534,0.130374
659,-0.7533,0.130374
660,-0.7532,0.130374
661,-0.7531,0.130374
662,-0.753,0.130374
663,-0.7529,0.130374
664,-0.7528,0.130374
665,-0.7527,0.130374
666,-0.7526,0.130374
667,-0.7525,0.130374
668,-0.7524,0.130374
669,-0.7523,0.130374
670,-0.7522,0.130374
671,-0.7521,0.130374
672,-0.752,0.130374
673,-0.7519,0.125406
674,-0.7518,0.128718
675,-0.7517,0.128718
676,-0.7516,0.128718
677,-0.7515,0.128718
678,-0.7514,0.128718
679,-0.7513,0.128718
680,-0.7512,0.128718
681,-0.7511,0.128718
682,-0.751,0.128718
683,-0.7509,0.128718
684,-0.7508,0.128718
685,-0.7507,0.128718
686,-0.7506,0.128718
687,-0.7505,0.128718
688,-0.7504,0.128718
689,-0.7503,0.128718
690,-0.7502,0.128718
691,-0.7501,0.128718
692,-0.75,0.128718
693,-0.7499,0.128718
694,-0.7498,0.128718
695,-0.7497,0.128718
696,-0.7496,0.128718
697,-0.7495,0.128718
698,-0.7494,0.128718
699,-0.7493,0.128718
700,-0.7492,0.128718
701,-0.7491,0.128718
702,-0.749,0.128718
703,-0.7489,0.128718
704,-0.7488,0.128718
705,-0.7487,0.128718
706,-0.7486,0.128718
707,-0.7485,0.128718
708,-0.7484,0.128718
709,-0.7483,0.128718
710,-0.7482,0.128718
711,-0.7481,0.128718
712,-0.748,0.128718
713,-0.7479,0.128718
714,-0.7478,0.128718
715,-0.7477,0.128718
716,-0.7476,0.128718
717,-0.7475,0.128718
718,-0.7474,0.128718
719,-0.7473,0.128718
720,-0.7472,0.128718
721,-0.7471,0.128718
722,-0.747,0.128718
723,-0.7469,0.128718
724,-0.7468,0.128718
725,-0.7467,0.128718
726,-0.7466,0.128718
727,-0.7465,0.128718
728,-0.7464,0.128718
729,-0.7463,0.128718
730,-0.7462,0.128718
731,-0.7461,0.128718
732,-0.746,0.128718
733,-0.7459,0.128718
734,-0.7458,0.128718
735,-0.7457,0.128718
736,-0.7456,0.128718
737,-0.7455,0.128718
738,-0.7454,0.128718
739,-0.7453,0.128718
740,-0.7452,0.128718
741,-0.7451,0.128718
742,-0.745,0.128718
743,-0.7449,0.128718
744,-0.7448,0.128718
745,-0.7447,0.128718
746,-0.7446,0.128718
747,-0.7445,0.128718
748,-0.7444,0.128718
749,-0.7443,0.128718
750,-0.7442,0.128718
751,-0.7441,0.128718
752,-0.744,0.128718
753,-0.7439,0.128718
754,-0.7438,0.128718
755,-0.7437,0.128718
756,-0.7436,0.128718
757,-0.7435,0.128718
758,-0.7434,0.128718
759,-0.7433,0.128718
760,-0.7432,0.128718
761,-0.7431,0.128718
762,-0.743,0.128718
763,-0.7429,0.128718
764,-0.7428,0.128718
765,-0.7427,0.128718
766,-0.7426,0.128718
767,-0.7425,0.128718
768,-0.7424,0.128718
769,-0.7423,0.128718
770,-0.7422,0.128718
771,-0.7421,0.128718
772,-0.742,0.128718
773,-0.7419,0.128718
774,-0.7418,0.128718
775,-0.7417,0.128718
776,-0.7416,0.128718
777,-0.7415,0.128718
778,-0.7414,0.128718
779,-0.7413,0.128718
780,-0.7412,0.128718
781,-0.7411,0.128718
782,-0.741,0.128718
783,-0.7409,0.128718
784,-0.7408,0.130374
785,-0.7407,0.130374
786,-0.7406,0.130374
787,-0.7405,0.130374
788,-0.7404,0.130374
789,-0.7403,0.130374
790,-0.7402,0.130374
791,-0.7401,0.130374
792,-0.74,0.130374
793,-0.7399,0.130374
794,-0.7398,0.130374
795,-0.7397,0.130374
796,-0.7396,0.130374
797,-0.7395,0.130374
798,-0.7394,0.130374
799,-0.7393,0.130374
800,-0.7392,0.128718
801,-0.7391,0.128718
802,-0.739,0.130374
803,-0.7389,0.130374
804,-0.7388,0.130374
805,-0.7387,0.130374
806,-0.7386,0.130374
807,-0.7385,0.128718
808,-0.7384,0.130374
809,-0.7383,0.130374
810,-0.7382,0.130374
811,-0.7381,0.130374
812,-0.738,0.130374
813,-0.7379,0.130374
814,-0.7378,0.130374
815,-0.7377,0.130374
816,-0.7376,0.130374
817,-0.7375,0.130374
818,-0.7374,0.130374
819,-0.7373,0.130374
820,-0.7372,0.130374
821,-0.7371,0.130374
822,-0.737,0.130374
823,-0.7369,0.130374
824,-0.7368,0.130374
825,-0.7367,0.130374
826,-0.7366,0.130374
827,-0.7365,0.130374
828,-0.7364,0.130374
829,-0.7363,0.130374
830,-0.7362,0.130374
831,-0.7361,0.130374
832,-0.736,0.130374
833,-0.7359,0.130374
834,-0.7358,0.128718
835,-0.7357,0.128718
836,-0.7356,0.128718
837,-0.7355,0.128718
838,-0.7354,0.128718
839,-0.7353,0.128718
840,-0.7352,0.128718
841,-0.7351,0.128718
842,-0.735,0.128718
843,-0.7349,0.128718
844,-0.7348,0.128718
845,-0.7347,0.128718
846,-0.7346,0.128718
847,-0.7345,0.128718
848,-0.7344,0.128718
849,-0.7343,0.128718
850,-0.7342,0.128718
851,-0.7341,0.128718
852,-0.734,0.128718
853,-0.7339,0.128718
854,-0.7338,0.128718
855,-0.7337,0.128718
856,-0.7336,0.128718
857,-0.7335,0.128718
858,-0.7334,0.128718
859,-0.7333,0.128718
860,-0.7332,0.128718
861,-0.7331,0.128718
862,-0.733,0.128718
863,-0.7329,0.128718
864,-0.7328,0.128718
865,-0.7327,0.128718
866,-0.7326,0.128718
867,-0.7325,0.128718
868,-0.7324,0.128718
869,-0.7323,0.128718
870,-0.7322,0.128718
871,-0.7321,0.128718
872,-0.732,0.128718
873,-0.7319,0.128718
874,-0.7318,0.128718
875,-0.7317,0.128718
876,-0.7316,0.128718
877,-0.7315,0.128718
878,-0.7314,0.128718
879,-0.7313,0.128718
880,-0.7312,0.128718
881,-0.7311,0.128718
882,-0.731,0.128718
883,-0.7309,0.128718
884,-0.7308,0.128718
885,-0.7307,0.128718
886,-0.7306,0.128718
887,-0.7305,0.128718
888,-0.7304,0.128718
889,-0.7303,0.128718
890,-0.7302,0.128718
891,-0.7301,0.128718
892,-0.73,0.128718
893,-0.7299,0.128718
894,-0.7298,0.128718
895,-0.7297,0.128718
896,-0.7296,0.128718
897,-0.7295,0.128718
898,-0.7294,0.128718
899,-0.7293,0.128718
900,-0.7292,0.128718
901,-0.7291,0.128718
902,-0.729,0.128718
903,-0.7289,0.128718
904,-0.7288,0.128718
905,-0.7287,0.128718
906,-0.7286,0.128718
907,-0.7285,0.128718
908,-0.7284,0.128718
909,-0.7283,0.128718
910,-0.7282,0.128718
911,-0.7281,0.128718
912,-0.728,0.128718
913,-0.7279,0.128718
914,-0.7278,0.128718
915,-0.7277,0.128718
916,-0.7276,0.128718
917,-0.7275,0.128718
918,-0.7274,0.128718
919,-0.7273,0.128718
920,-0.7272,0.128718
921,-0.7271,0.128718
922,-0.727,0.128718
923,-0.7269,0.128718
924,-0.7268,0.128718
925,-0.7267,0.128718
926,-0.7266,0.128718
927,-0.7265,0.128718
928,-0.7264,0.128718
929,-0.7263,0.128718
930,-0.7262,0.128718
931,-0.7261,0.128718
932,-0.726,0.128718
933,-0.7259,0.128718
934,-0.7258,0.128718
935,-0.7257,0.128718
936,-0.7256,0.128718
937,-0.7255,0.128718
938,-0.7254,0.128718
939,-0.7253,0.128718
940,-0.7252,0.128718
941,-0.7251,0.128718
942,-0.725,0.128718
943,-0.7249,0.128718
944,-0.7248,0.128718
945,-0.7247,0.128718
946,-0.7246,0.128718
947,-0.7245,0.128718
948,-0.7244,0.128718
949,-0.7243,0.128718
950,-0.7242,0.128718
951,-0.7241,0.128718
952,-0.724,0.128718
953,-0.7239,0.128718
