poster/plots_power/scopy mesures 3 32Mhz.csv

;Scopy version,f4beeb1
;Exported on,mercredi décembre 11/12/2024
;Device,M2K
;Nr of samples,8000
;Sample rate,1000
;Tool,Oscilloscope
;Additional Information,
Sample,Time(S),CH1(V)
0,-4,0.206923
1,-3.999,0.206923
2,-3.998,0.206923
3,-3.997,0.206923
4,-3.996,0.206923
5,-3.995,0.206923
6,-3.994,0.206923
7,-3.993,0.206923
8,-3.992,0.206923
9,-3.991,0.206923
10,-3.99,0.206923
11,-3.989,0.206923
12,-3.988,0.206923
13,-3.987,0.206923
14,-3.986,0.206923
15,-3.985,0.206923
16,-3.984,0.206923
17,-3.983,0.206923
18,-3.982,0.206923
19,-3.981,0.206923
20,-3.98,0.206923
21,-3.979,0.206923
22,-3.978,0.206923
23,-3.977,0.206923
24,-3.976,0.206923
25,-3.975,0.206923
26,-3.974,0.206923
27,-3.973,0.206923
28,-3.972,0.206923
29,-3.971,0.206923
30,-3.97,0.206923
31,-3.969,0.206923
32,-3.968,0.206923
33,-3.967,0.206923
34,-3.966,0.206923
35,-3.965,0.206923
36,-3.964,0.206923
37,-3.963,0.206923
38,-3.962,0.206923
39,-3.961,0.206923
40,-3.96,0.206923
41,-3.959,0.206923
42,-3.958,0.206923
43,-3.957,0.206923
44,-3.956,0.206923
45,-3.955,0.206923
46,-3.954,0.206923
47,-3.953,0.206923
48,-3.952,0.206923
49,-3.951,0.206923
50,-3.95,0.206923
51,-3.949,0.206923
52,-3.948,0.206923
53,-3.947,0.206923
54,-3.946,0.206923
55,-3.945,0.206923
56,-3.944,0.206923
57,-3.943,0.206923
58,-3.942,0.206923
59,-3.941,0.206923
60,-3.94,0.206923
61,-3.939,0.206923
62,-3.938,0.206923
63,-3.937,0.206923
64,-3.936,0.206923
65,-3.935,0.206923
66,-3.934,0.206923
67,-3.933,0.206923
68,-3.932,0.206923
69,-3.931,0.206923
70,-3.93,0.206923
71,-3.929,0.206923
72,-3.928,0.206923
73,-3.927,0.206923
74,-3.926,0.206923
75,-3.925,0.206923
76,-3.924,0.206923
77,-3.923,0.206923
78,-3.922,0.206923
79,-3.921,0.206923
80,-3.92,0.206923
81,-3.919,0.206923
82,-3.918,0.206923
83,-3.917,0.206923
84,-3.916,0.206923
85,-3.915,0.206923
86,-3.914,0.206923
87,-3.913,0.206923
88,-3.912,0.206923
89,-3.911,0.206923
90,-3.91,0.206923
91,-3.909,0.206923
92,-3.908,0.206923
93,-3.907,0.206923
94,-3.906,0.206923
95,-3.905,0.206923
96,-3.904,0.206923
97,-3.903,0.206923
98,-3.902,0.206923
99,-3.901,0.206923
100,-3.9,0.206923
101,-3.899,0.206923
102,-3.898,0.206923
103,-3.897,0.206923
104,-3.896,0.206923
105,-3.895,0.206923
106,-3.894,0.206923
107,-3.893,0.206923
108,-3.892,0.206923
109,-3.891,0.206923
110,-3.89,0.206923
111,-3.889,0.206923
112,-3.888,0.206923
113,-3.887,0.206923
114,-3.886,0.206923
115,-3.885,0.206923
116,-3.884,0.206923
117,-3.883,0.206923
118,-3.882,0.206923
119,-3.881,0.206923
120,-3.88,0.206923
121,-3.879,0.206923
122,-3.878,0.206923
123,-3.877,0.206923
124,-3.876,0.206923
125,-3.875,0.206923
126,-3.874,0.206923
127,-3.873,0.206923
128,-3.872,0.206923
129,-3.871,0.206923
130,-3.87,0.206923
131,-3.869,0.206923
132,-3.868,0.206923
133,-3.867,0.206923
134,-3.866,0.206923
135,-3.865,0.206923
136,-3.864,0.206923
137,-3.863,0.206923
138,-3.862,0.206923
139,-3.861,0.206923
140,-3.86,0.206923
141,-3.859,0.206923
142,-3.858,0.206923
143,-3.857,0.206923
144,-3.856,0.206923
145,-3.855,0.206923
146,-3.854,0.206923
147,-3.853,0.206923
148,-3.852,0.206923
149,-3.851,0.206923
150,-3.85,0.206923
151,-3.849,0.206923
152,-3.848,0.206923
153,-3.847,0.206923
154,-3.846,0.206923
155,-3.845,0.206923
156,-3.844,0.206923
157,-3.843,0.206923
158,-3.842,0.206923
159,-3.841,0.206923
160,-3.84,0.206923
161,-3.839,0.206923
162,-3.838,0.205184
163,-3.837,0.194751
164,-3.836,0.10607
165,-3.835,0.107809
166,-3.834,0.10607
167,-3.833,0.10607
168,-3.832,0.10607
169,-3.831,0.10607
170,-3.83,0.10607
171,-3.829,0.10607
172,-3.828,0.10607
173,-3.827,0.10607
174,-3.826,0.10607
175,-3.825,0.10607
176,-3.824,0.10607
177,-3.823,0.10607
178,-3.822,0.10607
179,-3.821,0.10607
180,-3.82,0.10607
181,-3.819,0.10607
182,-3.818,0.10607
183,-3.817,0.10607
184,-3.816,0.10607
185,-3.815,0.10607
186,-3.814,0.10607
187,-3.813,0.10607
188,-3.812,0.10607
189,-3.811,0.10607
190,-3.81,0.10607
191,-3.809,0.10607
192,-3.808,0.10607
193,-3.807,0.10607
194,-3.806,0.10607
195,-3.805,0.10607
196,-3.804,0.10607
197,-3.803,0.10607
198,-3.802,0.10607
199,-3.801,0.10607
200,-3.8,0.10607
201,-3.799,0.10607
202,-3.798,0.10607
203,-3.797,0.10607
204,-3.796,0.10607
205,-3.795,0.10607
206,-3.794,0.10607
207,-3.793,0.10607
208,-3.792,0.10607
209,-3.791,0.10607
210,-3.79,0.10607
211,-3.789,0.10607
212,-3.788,0.10607
213,-3.787,0.119981
214,-3.786,0.234745
215,-3.785,0.227789
216,-3.784,0.123458
217,-3.783,0.10607
218,-3.782,0.10607
219,-3.781,0.10607
220,-3.78,0.10607
221,-3.779,0.10607
222,-3.778,0.10607
223,-3.777,0.10607
224,-3.776,0.10607
225,-3.775,0.10607
226,-3.774,0.10607
227,-3.773,0.10607
228,-3.772,0.10607
229,-3.771,0.10607
230,-3.77,0.10607
231,-3.769,0.10607
232,-3.768,0.10607
233,-3.767,0.10607
234,-3.766,0.10607
235,-3.765,0.10607
236,-3.764,0.10607
237,-3.763,0.10607
238,-3.762,0.10607
239,-3.761,0.10607
240,-3.76,0.10607
241,-3.759,0.10607
242,-3.758,0.10607
243,-3.757,0.10607
244,-3.756,0.10607
245,-3.755,0.10607
246,-3.754,0.10607
247,-3.753,0.10607
248,-3.752,0.10607
249,-3.751,0.10607
250,-3.75,0.10607
251,-3.749,0.10607
252,-3.748,0.10607
253,-3.747,0.10607
254,-3.746,0.10607
255,-3.745,0.10607
256,-3.744,0.10607
257,-3.743,0.10607
258,-3.742,0.10607
259,-3.741,0.10607
260,-3.74,0.10607
261,-3.739,0.10607
262,-3.738,0.107809
263,-3.737,0.114764
264,-3.736,0.234745
265,-3.735,0.229528
266,-3.734,0.126936
267,-3.733,0.10607
268,-3.732,0.10607
269,-3.731,0.10607
270,-3.73,0.10607
271,-3.729,0.10607
272,-3.728,0.10607
273,-3.727,0.10607
274,-3.726,0.10607
275,-3.725,0.10607
276,-3.724,0.10607
277,-3.723,0.10607
278,-3.722,0.10607
279,-3.721,0.10607
280,-3.72,0.10607
281,-3.719,0.10607
282,-3.718,0.10607
283,-3.717,0.10607
284,-3.716,0.10607
285,-3.715,0.10607
286,-3.714,0.10607
287,-3.713,0.10607
288,-3.712,0.10607
289,-3.711,0.10607
290,-3.71,0.10607
291,-3.709,0.10607
292,-3.708,0.10607
293,-3.707,0.10607
294,-3.706,0.10607
295,-3.705,0.10607
296,-3.704,0.10607
297,-3.703,0.10607
298,-3.702,0.10607
299,-3.701,0.10607
300,-3.7,0.10607
301,-3.699,0.10607
302,-3.698,0.10607
303,-3.697,0.10607
304,-3.696,0.10607
305,-3.695,0.10607
306,-3.694,0.10607
307,-3.693,0.10607
308,-3.692,0.10607
309,-3.691,0.10607
310,-3.69,0.10607
311,-3.689,0.10607
312,-3.688,0.10607
313,-3.687,0.113025
314,-3.686,0.233006
315,-3.685,0.229528
316,-3.684,0.128675
317,-3.683,0.10607
318,-3.682,0.10607
319,-3.681,0.10607
320,-3.68,0.10607
321,-3.679,0.10607
322,-3.678,0.10607
323,-3.677,0.10607
324,-3.676,0.10607
325,-3.675,0.10607
326,-3.674,0.10607
327,-3.673,0.10607
328,-3.672,0.10607
329,-3.671,0.10607
330,-3.67,0.10607
331,-3.669,0.10607
332,-3.668,0.10607
333,-3.667,0.10607
334,-3.666,0.10607
335,-3.665,0.10607
336,-3.664,0.10607
337,-3.663,0.10607
338,-3.662,0.10607
339,-3.661,0.10607
340,-3.66,0.10607
341,-3.659,0.10607
342,-3.658,0.10607
343,-3.657,0.10607
344,-3.656,0.10607
345,-3.655,0.10607
346,-3.654,0.10607
347,-3.653,0.10607
348,-3.652,0.10607
349,-3.651,0.10607
350,-3.65,0.10607
351,-3.649,0.10607
352,-3.648,0.10607
353,-3.647,0.10607
354,-3.646,0.10607
355,-3.645,0.10607
356,-3.644,0.10607
357,-3.643,0.10607
358,-3.642,0.10607
359,-3.641,0.10607
360,-3.64,0.10607
361,-3.639,0.10607
362,-3.638,0.107809
363,-3.637,0.107809
364,-3.636,0.227789
365,-3.635,0.233006
366,-3.634,0.13563
367,-3.633,0.10607
368,-3.632,0.10607
369,-3.631,0.10607
370,-3.63,0.10607
371,-3.629,0.10607
372,-3.628,0.10607
373,-3.627,0.10607
374,-3.626,0.10607
375,-3.625,0.10607
376,-3.624,0.10607
377,-3.623,0.10607
378,-3.622,0.10607
379,-3.621,0.10607
380,-3.62,0.10607
381,-3.619,0.10607
382,-3.618,0.10607
383,-3.617,0.10607
384,-3.616,0.10607
385,-3.615,0.10607
386,-3.614,0.10607
387,-3.613,0.10607
388,-3.612,0.10607
389,-3.611,0.10607
390,-3.61,0.10607
391,-3.609,0.10607
392,-3.608,0.10607
393,-3.607,0.10607
394,-3.606,0.10607
395,-3.605,0.10607
396,-3.604,0.10607
397,-3.603,0.10607
398,-3.602,0.10607
399,-3.601,0.10607
400,-3.6,0.10607
401,-3.599,0.10607
402,-3.598,0.10607
403,-3.597,0.10607
404,-3.596,0.10607
405,-3.595,0.10607
406,-3.594,0.10607
407,-3.593,0.10607
408,-3.592,0.10607
409,-3.591,0.10607
410,-3.59,0.10607
411,-3.589,0.10607
412,-3.588,0.107809
413,-3.587,0.10607
414,-3.586,0.226051
415,-3.585,0.231267
416,-3.584,0.137369
417,-3.583,0.10607
418,-3.582,0.10607
419,-3.581,0.10607
420,-3.58,0.10607
421,-3.579,0.10607
422,-3.578,0.10607
423,-3.577,0.10607
424,-3.576,0.10607
425,-3.575,0.10607
426,-3.574,0.10607
427,-3.573,0.10607
428,-3.572,0.10607
429,-3.571,0.10607
430,-3.57,0.10607
431,-3.569,0.10607
432,-3.568,0.10607
433,-3.567,0.10607
434,-3.566,0.10607
435,-3.565,0.10607
436,-3.564,0.10607
437,-3.563,0.10607
438,-3.562,0.10607
439,-3.561,0.10607
440,-3.56,0.10607
441,-3.559,0.10607
442,-3.558,0.10607
443,-3.557,0.10607
444,-3.556,0.10607
445,-3.555,0.10607
446,-3.554,0.10607
447,-3.553,0.10607
448,-3.552,0.10607
449,-3.551,0.10607
450,-3.55,0.10607
451,-3.549,0.10607
452,-3.548,0.10607
453,-3.547,0.10607
454,-3.546,0.10607
455,-3.545,0.10607
456,-3.544,0.10607
457,-3.543,0.10607
458,-3.542,0.10607
459,-3.541,0.10607
460,-3.54,0.10607
461,-3.539,0.10607
462,-3.538,0.107809
463,-3.537,0.104331
464,-3.536,0.222573
465,-3.535,0.234745
466,-3.534,0.142586
467,-3.533,0.10607
468,-3.532,0.10607
469,-3.531,0.10607
470,-3.53,0.10607
471,-3.529,0.10607
472,-3.528,0.10607
473,-3.527,0.10607
474,-3.526,0.10607
475,-3.525,0.10607
476,-3.524,0.10607
477,-3.523,0.10607
478,-3.522,0.10607
479,-3.521,0.10607
480,-3.52,0.10607
481,-3.519,0.10607
482,-3.518,0.10607
483,-3.517,0.10607
484,-3.516,0.10607
485,-3.515,0.10607
486,-3.514,0.10607
487,-3.513,0.10607
488,-3.512,0.10607
489,-3.511,0.10607
490,-3.51,0.10607
491,-3.509,0.10607
492,-3.508,0.10607
493,-3.507,0.10607
494,-3.506,0.10607
495,-3.505,0.10607
496,-3.504,0.10607
497,-3.503,0.10607
498,-3.502,0.10607
499,-3.501,0.10607
500,-3.5,0.10607
501,-3.499,0.10607
502,-3.498,0.10607
503,-3.497,0.10607
504,-3.496,0.10607
505,-3.495,0.10607
506,-3.494,0.10607
507,-3.493,0.10607
508,-3.492,0.10607
509,-3.491,0.10607
510,-3.49,0.10607
511,-3.489,0.10607
512,-3.488,0.107809
513,-3.487,0.102592
514,-3.486,0.217356
515,-3.485,0.233006
516,-3.484,0.147802
517,-3.483,0.10607
518,-3.482,0.10607
519,-3.481,0.10607
520,-3.48,0.10607
521,-3.479,0.10607
522,-3.478,0.10607
523,-3.477,0.10607
524,-3.476,0.10607
525,-3.475,0.10607
526,-3.474,0.10607
527,-3.473,0.10607
528,-3.472,0.10607
529,-3.471,0.10607
530,-3.47,0.10607
531,-3.469,0.10607
532,-3.468,0.10607
533,-3.467,0.10607
534,-3.466,0.10607
535,-3.465,0.10607
536,-3.464,0.10607
537,-3.463,0.10607
538,-3.462,0.10607
539,-3.461,0.10607
540,-3.46,0.10607
541,-3.459,0.10607
542,-3.458,0.10607
543,-3.457,0.10607
544,-3.456,0.10607
545,-3.455,0.10607
546,-3.454,0.10607
547,-3.453,0.10607
548,-3.452,0.10607
549,-3.451,0.10607
550,-3.45,0.10607
551,-3.449,0.10607
552,-3.448,0.10607
553,-3.447,0.10607
554,-3.446,0.10607
555,-3.445,0.10607
556,-3.444,0.10607
557,-3.443,0.10607
558,-3.442,0.10607
559,-3.441,0.10607
560,-3.44,0.10607
561,-3.439,0.10607
562,-3.438,0.10607
563,-3.437,0.102592
564,-3.436,0.213879
565,-3.435,0.234745
566,-3.434,0.15128
567,-3.433,0.10607
568,-3.432,0.10607
569,-3.431,0.10607
570,-3.43,0.10607
571,-3.429,0.10607
572,-3.428,0.10607
573,-3.427,0.10607
574,-3.426,0.10607
575,-3.425,0.10607
576,-3.424,0.10607
577,-3.423,0.10607
578,-3.422,0.10607
579,-3.421,0.10607
580,-3.42,0.10607
581,-3.419,0.10607
582,-3.418,0.10607
583,-3.417,0.10607
584,-3.416,0.10607
585,-3.415,0.10607
586,-3.414,0.10607
587,-3.413,0.10607
588,-3.412,0.10607
589,-3.411,0.10607
590,-3.41,0.10607
591,-3.409,0.10607
592,-3.408,0.10607
593,-3.407,0.10607
594,-3.406,0.10607
595,-3.405,0.10607
596,-3.404,0.10607
597,-3.403,0.10607
598,-3.402,0.10607
599,-3.401,0.10607
600,-3.4,0.10607
601,-3.399,0.10607
602,-3.398,0.10607
603,-3.397,0.10607
604,-3.396,0.10607
605,-3.395,0.10607
606,-3.394,0.10607
607,-3.393,0.10607
608,-3.392,0.10607
609,-3.391,0.10607
610,-3.39,0.10607
611,-3.389,0.10607
612,-3.388,0.107809
613,-3.387,0.100853
614,-3.386,0.208662
615,-3.385,0.236484
616,-3.384,0.156497
617,-3.383,0.10607
618,-3.382,0.10607
619,-3.381,0.10607
620,-3.38,0.10607
621,-3.379,0.10607
622,-3.378,0.10607
623,-3.377,0.10607
624,-3.376,0.10607
625,-3.375,0.10607
626,-3.374,0.10607
627,-3.373,0.10607
628,-3.372,0.10607
629,-3.371,0.10607
630,-3.37,0.10607
631,-3.369,0.10607
632,-3.368,0.10607
633,-3.367,0.10607
634,-3.366,0.10607
635,-3.365,0.10607
636,-3.364,0.10607
637,-3.363,0.10607
638,-3.362,0.10607
639,-3.361,0.10607
640,-3.36,0.10607
641,-3.359,0.10607
642,-3.358,0.10607
643,-3.357,0.10607
644,-3.356,0.10607
645,-3.355,0.10607
646,-3.354,0.10607
647,-3.353,0.10607
648,-3.352,0.10607
649,-3.351,0.10607
650,-3.35,0.10607
651,-3.349,0.10607
652,-3.348,0.10607
653,-3.347,0.10607
654,-3.346,0.10607
655,-3.345,0.10607
656,-3.344,0.10607
657,-3.343,0.10607
658,-3.342,0.10607
659,-3.341,0.10607
660,-3.34,0.10607
661,-3.339,0.10607
662,-3.338,0.107809
663,-3.337,0.100853
664,-3.336,0.205184
665,-3.335,0.236484
666,-3.334,0.161713
667,-3.333,0.104331
668,-3.332,0.10607
669,-3.331,0.10607
670,-3.33,0.10607
671,-3.329,0.10607
672,-3.328,0.10607
673,-3.327,0.10607
674,-3.326,0.10607
675,-3.325,0.10607
676,-3.324,0.10607
677,-3.323,0.10607
678,-3.322,0.10607
679,-3.321,0.10607
680,-3.32,0.10607
681,-3.319,0.10607
682,-3.318,0.10607
683,-3.317,0.10607
684,-3.316,0.10607
685,-3.315,0.10607
686,-3.314,0.10607
687,-3.313,0.10607
688,-3.312,0.10607
689,-3.311,0.10607
690,-3.31,0.10607
691,-3.309,0.10607
692,-3.308,0.10607
693,-3.307,0.10607
694,-3.306,0.10607
695,-3.305,0.10607
696,-3.304,0.10607
697,-3.303,0.10607
698,-3.302,0.10607
699,-3.301,0.10607
700,-3.3,0.10607
701,-3.299,0.10607
702,-3.298,0.10607
703,-3.297,0.10607
704,-3.296,0.10607
705,-3.295,0.10607
706,-3.294,0.10607
707,-3.293,0.10607
708,-3.292,0.10607
709,-3.291,0.10607
710,-3.29,0.10607
711,-3.289,0.10607
712,-3.288,0.107809
713,-3.287,0.100853
714,-3.286,0.19649
715,-3.285,0.238223
716,-3.284,0.16693
717,-3.283,0.10607
718,-3.282,0.10607
719,-3.281,0.10607
720,-3.28,0.10607
721,-3.279,0.10607
722,-3.278,0.10607
723,-3.277,0.10607
724,-3.276,0.10607
725,-3.275,0.10607
726,-3.274,0.10607
727,-3.273,0.10607
728,-3.272,0.10607
729,-3.271,0.10607
730,-3.27,0.10607
731,-3.269,0.10607
732,-3.268,0.10607
733,-3.267,0.10607
734,-3.266,0.10607
735,-3.265,0.10607
736,-3.264,0.10607
737,-3.263,0.10607
738,-3.262,0.10607
739,-3.261,0.10607
740,-3.26,0.10607
741,-3.259,0.10607
742,-3.258,0.10607
743,-3.257,0.10607
744,-3.256,0.10607
745,-3.255,0.10607
746,-3.254,0.10607
747,-3.253,0.10607
748,-3.252,0.10607
749,-3.251,0.10607
750,-3.25,0.10607
751,-3.249,0.10607
752,-3.248,0.10607
753,-3.247,0.10607
754,-3.246,0.10607
755,-3.245,0.10607
756,-3.244,0.10607
757,-3.243,0.10607
758,-3.242,0.10607
759,-3.241,0.10607
760,-3.24,0.10607
761,-3.239,0.10607
762,-3.238,0.10607
763,-3.237,0.100853
764,-3.236,0.193012
765,-3.235,0.238223
766,-3.234,0.172146
767,-3.233,0.104331
768,-3.232,0.10607
769,-3.231,0.10607
770,-3.23,0.10607
771,-3.229,0.10607
772,-3.228,0.10607
773,-3.227,0.10607
774,-3.226,0.10607
775,-3.225,0.10607
776,-3.224,0.10607
777,-3.223,0.10607
778,-3.222,0.10607
779,-3.221,0.10607
780,-3.22,0.10607
781,-3.219,0.10607
782,-3.218,0.10607
783,-3.217,0.10607
784,-3.216,0.10607
785,-3.215,0.10607
786,-3.214,0.10607
787,-3.213,0.10607
788,-3.212,0.10607
789,-3.211,0.10607
790,-3.21,0.10607
791,-3.209,0.10607
792,-3.208,0.10607
793,-3.207,0.10607
794,-3.206,0.10607
795,-3.205,0.10607
796,-3.204,0.10607
797,-3.203,0.10607
798,-3.202,0.10607
799,-3.201,0.10607
800,-3.2,0.10607
801,-3.199,0.10607
802,-3.198,0.10607
803,-3.197,0.10607
804,-3.196,0.10607
805,-3.195,0.10607
806,-3.194,0.10607
807,-3.193,0.10607
808,-3.192,0.10607
809,-3.191,0.10607
810,-3.19,0.10607
811,-3.189,0.10607
812,-3.188,0.10607
813,-3.187,0.100853
814,-3.186,0.189535
815,-3.185,0.238223
816,-3.184,0.18084
817,-3.183,0.104331
818,-3.182,0.10607
819,-3.181,0.10607
820,-3.18,0.10607
821,-3.179,0.10607
822,-3.178,0.10607
823,-3.177,0.10607
824,-3.176,0.10607
825,-3.175,0.10607
826,-3.174,0.10607
827,-3.173,0.10607
828,-3.172,0.10607
829,-3.171,0.10607
830,-3.17,0.10607
831,-3.169,0.10607
832,-3.168,0.10607
833,-3.167,0.10607
834,-3.166,0.10607
835,-3.165,0.10607
836,-3.164,0.10607
837,-3.163,0.10607
838,-3.162,0.10607
839,-3.161,0.10607
840,-3.16,0.10607
841,-3.159,0.10607
842,-3.158,0.10607
843,-3.157,0.10607
844,-3.156,0.10607
845,-3.155,0.10607
846,-3.154,0.10607
847,-3.153,0.10607
848,-3.152,0.10607
849,-3.151,0.10607
850,-3.15,0.10607
851,-3.149,0.10607
852,-3.148,0.10607
853,-3.147,0.10607
854,-3.146,0.10607
855,-3.145,0.10607
856,-3.144,0.10607
857,-3.143,0.10607
858,-3.142,0.10607
859,-3.141,0.10607
860,-3.14,0.10607
861,-3.139,0.10607
862,-3.138,0.10607
863,-3.137,0.100853
864,-3.136,0.184318
865,-3.135,0.238223
866,-3.134,0.184318
867,-3.133,0.104331
868,-3.132,0.10607
869,-3.131,0.10607
870,-3.13,0.10607
871,-3.129,0.10607
872,-3.128,0.10607
873,-3.127,0.10607
874,-3.126,0.10607
875,-3.125,0.10607
876,-3.124,0.10607
877,-3.123,0.10607
878,-3.122,0.10607
879,-3.121,0.10607
880,-3.12,0.10607
881,-3.119,0.10607
882,-3.118,0.10607
883,-3.117,0.10607
884,-3.116,0.10607
885,-3.115,0.10607
886,-3.114,0.10607
887,-3.113,0.10607
888,-3.112,0.10607
889,-3.111,0.10607
890,-3.11,0.10607
891,-3.109,0.10607
892,-3.108,0.10607
893,-3.107,0.10607
894,-3.106,0.10607
895,-3.105,0.10607
896,-3.104,0.10607
897,-3.103,0.10607
898,-3.102,0.10607
899,-3.101,0.10607
900,-3.1,0.10607
901,-3.099,0.10607
902,-3.098,0.10607
903,-3.097,0.10607
904,-3.096,0.10607
905,-3.095,0.10607
906,-3.094,0.10607
907,-3.093,0.10607
908,-3.092,0.10607
909,-3.091,0.10607
910,-3.09,0.10607
911,-3.089,0.10607
912,-3.088,0.10607
913,-3.087,0.102592
914,-3.086,0.173885
915,-3.085,0.239961
916,-3.084,0.189535
917,-3.083,0.104331
918,-3.082,0.10607
919,-3.081,0.10607
920,-3.08,0.10607
921,-3.079,0.10607
922,-3.078,0.10607
923,-3.077,0.10607
924,-3.076,0.10607
925,-3.075,0.10607
926,-3.074,0.10607
927,-3.073,0.10607
928,-3.072,0.10607
929,-3.071,0.10607
930,-3.07,0.10607
931,-3.069,0.10607
932,-3.068,0.10607
933,-3.067,0.10607
934,-3.066,0.10607
935,-3.065,0.10607
936,-3.064,0.10607
937,-3.063,0.10607
938,-3.062,0.10607
939,-3.061,0.10607
940,-3.06,0.10607
941,-3.059,0.10607
942,-3.058,0.10607
943,-3.057,0.10607
944,-3.056,0.10607
945,-3.055,0.10607
946,-3.054,0.10607
947,-3.053,0.10607
948,-3.052,0.10607
949,-3.051,0.10607
950,-3.05,0.10607
951,-3.049,0.10607
952,-3.048,0.10607
953,-3.047,0.10607
954,-3.046,0.10607
955,-3.045,0.10607
956,-3.044,0.10607
957,-3.043,0.10607
958,-3.042,0.10607
959,-3.041,0.10607
960,-3.04,0.10607
961,-3.039,0.10607
962,-3.038,0.10607
963,-3.037,0.102592
964,-3.036,0.168669
965,-3.035,0.239961
966,-3.034,0.19649
967,-3.033,0.104331
968,-3.032,0.10607
969,-3.031,0.10607
970,-3.03,0.10607
971,-3.029,0.10607
972,-3.028,0.10607
973,-3.027,0.10607
974,-3.026,0.10607
975,-3.025,0.10607
976,-3.024,0.10607
977,-3.023,0.10607
978,-3.022,0.10607
979,-3.021,0.10607
980,-3.02,0.10607
981,-3.019,0.10607
982,-3.018,0.10607
983,-3.017,0.10607
984,-3.016,0.10607
985,-3.015,0.10607
986,-3.014,0.10607
987,-3.013,0.10607
988,-3.012,0.10607
989,-3.011,0.10607
990,-3.01,0.10607
991,-3.009,0.10607
992,-3.008,0.10607
993,-3.007,0.10607
994,-3.006,0.10607
995,-3.005,0.10607
996,-3.004,0.10607
997,-3.003,0.10607
998,-3.002,0.10607
999,-3.001,0.10607
1000,-3,0.10607
1001,-2.999,0.10607
1002,-2.998,0.10607
1003,-2.997,0.10607
1004,-2.996,0.10607
1005,-2.995,0.10607
1006,-2.994,0.10607
1007,-2.993,0.10607
1008,-2.992,0.10607
1009,-2.991,0.10607
1010,-2.99,0.10607
1011,-2.989,0.10607
1012,-2.988,0.10607
1013,-2.987,0.104331
1014,-2.986,0.161713
1015,-2.985,0.239961
1016,-2.984,0.199968
1017,-2.983,0.104331
1018,-2.982,0.10607
1019,-2.981,0.10607
1020,-2.98,0.10607
1021,-2.979,0.10607
1022,-2.978,0.10607
1023,-2.977,0.10607
1024,-2.976,0.10607
1025,-2.975,0.10607
1026,-2.974,0.10607
1027,-2.973,0.10607
1028,-2.972,0.10607
1029,-2.971,0.10607
1030,-2.97,0.10607
1031,-2.969,0.10607
1032,-2.968,0.10607
1033,-2.967,0.10607
1034,-2.966,0.10607
1035,-2.965,0.10607
1036,-2.964,0.10607
1037,-2.963,0.10607
1038,-2.962,0.10607
1039,-2.961,0.10607
